{
  "pages": {
    "count": 316,
    "totalPage": 32,
    "page": 1,
    "limit": 10
  },
  "data": [{
    "img": {
      "width": 640,
      "height": 640
    },
    "blogger": "andylovessports",
    "comments": [14],
    "face_detection": "",
    "hash_tag": "conference",
    "href": "https://www.instagram.com/p/Bj51G9ylNFj/?tagged=conference",
    "id": "00001c8f3086c99ee54b44dfa5741ce6",
    "likes": 97,
    "location_lat": null,
    "location_lon": null,
    "location_name": "Tokyo, Japan",
    "location_url": "/explore/locations/7226110/tokyo-japan/",
    "object_detction": "{\"T_F\": true, \"msg\": \"success\", \"result\": [[\"person\", 0.9983120560646056, [336.35931396484375, 374.6875305175781, 183.81150817871097, 402.1871948242187]], [\"person\", 0.9982031583786012, [87.60661315917969, 378.945556640625, 171.2864532470703, 438.9477844238281]], [\"person\", 0.9939731359481812, [594.7332153320312, 380.7017822265625, 85.18252563476562, 399.6435546875]], [\"chair\", 0.8593460321426392, [276.4841003417969, 437.8973083496094, 205.0176239013672, 263.3780822753906]], [\"chair\", 0.8227626085281372, [573.0894775390625, 450.718994140625, 124.53497314453124, 226.33773803710935]]]}",
    "object_detection": "",
    "publish_time": "2018-06-11 23:55:49",
    "src": "/images/00001c8f3086c99ee54b44dfa5741ce6.jpg",
    "src_site": "instagram",
    "text": "Straight to the point... #speech #conference #passion #yolo? #sportsbusiness #??????? #???? #????????#???"
  }, {
    "blogger": "svadbavdominicane",
    "img": {
      "width": 640,
      "height": 640
    },
    "comments": [14],
    "face_detction": "{\"boxes\": [[150.47532045841217, 128.75627467036247, 238.289524063468, 246.39916394464672, 0.9999994039535522], [271.27704349160194, 168.32431122660637, 350.71260891854763, 281.0852721333504, 0.99998939037323], [409.2399197146297, 153.97161036729813, 499.1032681465149, 273.88703605532646, 0.9999840259552002]], \"points\": [[181.24447631835935, 220.94168090820312, 200.46372985839844, 171.01138305664062, 213.1651153564453, 172.97540283203125, 183.2249298095703, 199.12680053710935, 210.034912109375, 219.9799346923828], [292.46356201171875, 326.62640380859375, 310.6761474609375, 295.5792541503906, 331.19073486328125, 214.10186767578125, 212.97412109375, 231.1930694580078, 251.36715698242188, 248.4699554443359], [431.3660583496094, 468.9737548828125, 451.6175842285156, 439.51025390625, 479.1988220214844, 203.8062286376953, 196.85043334960935, 220.0719451904297, 241.6880798339844, 235.1073760986328]]}",
    "face_detection": "",
    "hash_tag": "beachwedding",
    "href": "https://www.instagram.com/p/BjbOSOZnOqi/?tagged=beachwedding",
    "id": "00002062ad49c951117254d98219ccf6",
    "likes": 4,
    "location_lat": null,
    "location_lon": null,
    "location_name": "",
    "location_url": "",
    "object_detction": "{\"T_F\": true, \"msg\": \"success\", \"result\": [[\"person\", 0.998635709285736, [132.91734313964844, 375.662109375, 255.03431701660156, 536.8175659179688]], [\"person\", 0.9957664608955384, [334.56988525390625, 387.09710693359375, 238.98597717285156, 492.414306640625]], [\"person\", 0.9944514036178588, [480.94580078125, 366.7196044921875, 341.9896240234375, 534.9945678710938]]]}",
    "object_detection": "",
    "publish_time": "2018-05-31 02:39:21",
    "src": "/images/00002062ad49c951117254d98219ccf6.jpg",
    "src_site": "instagram",
    "text": "??????? ? ??????????. ?????? ??????? - ?????? ????? ??????! ???? ????????? ????? 300 ?????? ?? ?????? ?????? ??????????. ???????? ??? ??????, ??????? ????????????? ????! WatsApp +1 (829) 855-82-34 . . . #?????????????????? #??????????????????? #?????????????????? #?????????? #????????????????? #????????????????????????????? #????????????????? #????????????????? #????????? #puntacana #dominicana #dominicanrepublic #????? #??????????????????????????????? #???????????????????? #caribbeanwedding #??????????????? #????????????????????????????????? #???????????? #????????????? #?????????????????? #??????????????????????????????? #??????????????????????? #beachwedding #weddingplanner #??????? #weddingday #?????????????? #????????????????? #????????????????"
  }]
}
